…
##### Group

```
> # create factor variable tempcat and create a new labels hot cold
> chicago <- mutate(chicago, tempcat = factor(1* (tmpd > 80), labels =c ("cold", "hot")))
> hotcold <- group_by(chicago, tempcat)
> hotcold
# A tibble: 6,940 x 10
# Groups:   tempcat [3]
    city  tmpd dewpoint       date     pm25 pm10tmean2  o3tmean2
   <chr> <dbl>    <dbl>     <date>    <dbl>      <dbl>     <dbl>
 1  chic    35     30.1 2005-12-31 15.00000       23.5  2.531250
 2  chic    36     31.0 2005-12-30 15.05714       19.2  3.034420
 3  chic    35     29.4 2005-12-29  7.45000       23.5  6.794837
 4  chic    37     34.5 2005-12-28 17.75000       27.5  3.260417
 5  chic    40     33.6 2005-12-27 23.56000       27.0  4.468750
 6  chic    35     29.6 2005-12-26  8.40000        8.5 14.041667
 7  chic    35     32.1 2005-12-25  6.70000        8.0 14.354167
 8  chic    37     35.2 2005-12-24 30.77143       25.2  1.770833
 9  chic    41     32.6 2005-12-23 32.90000       34.5  6.906250
10  chic    22     23.3 2005-12-22 36.65000       42.5  5.385417
# ... with 6,930 more rows, and 3 more variables: no2tmean2 <dbl>,
#   pm25detrend <dbl>, tempcat <fctr>
…
