…
### Linear regression

lm gets the linear model

summary\(\) shows intercept and splope

```
> # Percentage of yes votes from the US by year: US_by_year
> US_by_year <- by_year_country %>%
    filter(country == "United States")
>
> # Print the US_by_year data
> US_by_year
# A tibble: 34 x 4
    year       country total percent_yes
   <dbl>         <chr> <int>       <dbl>
 1  1947 United States    38   0.7105263
 2  1949 United States    64   0.2812500
 3  1951 United States    25   0.4000000
 4  1953 United States    26   0.5000000
 5  1955 United States    37   0.6216216
 6  1957 United States    34   0.6470588
 7  1959 United States    54   0.4259259
 8  1961 United States    75   0.5066667
 9  1963 United States    32   0.5000000
10  1965 United States    41   0.3658537
# ... with 24 more rows
…
##### nest

nest\(-country\) will nest all information in separate pieces

```
> # Load the tidyr package
> library(tidyr)
>
> # Nest all columns besides country
> by_year_country %>%
  nest(-country)
# A tibble: 200 x 2
                           country              data
                             <chr>            <list>
 1                     Afghanistan <tibble [34 x 3]>
 2                       Argentina <tibble [34 x 3]>
 3                       Australia <tibble [34 x 3]>
 4                         Belarus <tibble [34 x 3]>
 5                         Belgium <tibble [34 x 3]>
 6 Bolivia, Plurinational State of <tibble [34 x 3]>
 7                          Brazil <tibble [34 x 3]>
 8                          Canada <tibble [34 x 3]>
 9                           Chile <tibble [34 x 3]>
10                        Colombia <tibble [34 x 3]>
# ... with 190 more rows
```
…
  <dbl>                           <chr> <int>       <dbl>
1  1947                     Afghanistan    34   0.3823529
2  1947                       Argentina    38   0.5789474
3  1947                       Australia    38   0.5526316
4  1947                         Belarus    38   0.5000000
5  1947                         Belgium    38   0.6052632
6  1947 Bolivia, Plurinational State of    37   0.5945946
> # All countries are nested besides country
> nested <- by_year_country %>%
    nest(-country)
>
> # Print the nested data for Brazil
> nested$data[7]
[[1]]
# A tibble: 34 x 3
    year total percent_yes
   <dbl> <int>       <dbl>
 1  1947    38   0.6578947
 2  1949    64   0.4687500
 3  1951    25   0.6400000
 4  1953    26   0.7307692
 5  1955    37   0.7297297
 6  1957    34   0.7352941
 7  1959    54   0.5370370
 8  1961    76   0.5526316
 9  1963    32   0.7812500
10  1965    41   0.6097561
# ... with 24 more rows
```
…
# A tibble: 6 x 4
   year                         country total percent_yes
  <dbl>                           <chr> <int>       <dbl>
1  1947                     Afghanistan    34   0.3823529
2  1947                       Argentina    38   0.5789474
3  1947                       Australia    38   0.5526316
4  1947                         Belarus    38   0.5000000
5  1947                         Belgium    38   0.6052632
6  1947 Bolivia, Plurinational State of    37   0.5945946
>
> # Perform a linear regression on each item in the data column
> by_year_country %>%
    nest(-country) %>%
    mutate(model = map(data, ~ lm(percent_yes ~ year, .)))
# A tibble: 200 x 3
                           country              data    model
                             <chr>            <list>   <list>
 1                     Afghanistan <tibble [34 x 3]> <S3: lm>
 2                       Argentina <tibble [34 x 3]> <S3: lm>
 3                       Australia <tibble [34 x 3]> <S3: lm>
 4                         Belarus <tibble [34 x 3]> <S3: lm>
 5                         Belgium <tibble [34 x 3]> <S3: lm>
 6 Bolivia, Plurinational State of <tibble [34 x 3]> <S3: lm>
 7                          Brazil <tibble [34 x 3]> <S3: lm>
 8                          Canada <tibble [34 x 3]> <S3: lm>
 9                           Chile <tibble [34 x 3]> <S3: lm>
10                        Colombia <tibble [34 x 3]> <S3: lm>
# ... with 190 more rows
```

Tidy each linear regression model

```
> # Load the broom package
> library(broom)
>
> # Add another mutate that applies tidy() to each model
> by_year_country %>%
    nest(-country) %>%
    mutate(model = map(data, ~ lm(percent_yes ~ year, data = .))) %>%
    mutate(tidied = map(model, tidy))
# A tibble: 200 x 4
                           country              data    model
                             <chr>            <list>   <list>
 1                     Afghanistan <tibble [34 x 3]> <S3: lm>
 2                       Argentina <tibble [34 x 3]> <S3: lm>
 3                       Australia <tibble [34 x 3]> <S3: lm>
 4                         Belarus <tibble [34 x 3]> <S3: lm>
 5                         Belgium <tibble [34 x 3]> <S3: lm>
 6 Bolivia, Plurinational State of <tibble [34 x 3]> <S3: lm>
 7                          Brazil <tibble [34 x 3]> <S3: lm>
 8                          Canada <tibble [34 x 3]> <S3: lm>
 9                           Chile <tibble [34 x 3]> <S3: lm>
10                        Colombia <tibble [34 x 3]> <S3: lm>
# ... with 190 more rows, and 1 more variables: tidied <list>
```

**Unnesting the dataframe**

```
> # Add one more step that unnests the tidied column
> country_coefficients <-by_year_country  %>%
    nest(-country) %>%
    mutate(model = map(data, ~ lm(percent_yes ~ year, data = .)),
           tidied = map(model, tidy)) %>%
    unnest(tidied)
>
> # Print the resulting country_coefficients variable
> country_coefficients
# A tibble: 399 x 6
       country        term      estimate    std.error statistic      p.value
         <chr>       <chr>         <dbl>        <dbl>     <dbl>        <dbl>
 1 Afghanistan (Intercept) -11.063084650 1.4705189228 -7.523252 1.444892e-08
 2 Afghanistan        year   0.006009299 0.0007426499  8.091698 3.064797e-09
 3   Argentina (Intercept)  -9.464512565 2.1008982371 -4.504984 8.322481e-05
 4   Argentina        year   0.005148829 0.0010610076  4.852773 3.047078e-05
 5   Australia (Intercept)  -4.545492536 2.1479916283 -2.116159 4.220387e-02
 6   Australia        year   0.002567161 0.0010847910  2.366503 2.417617e-02
 7     Belarus (Intercept)  -7.000692717 1.5024232546 -4.659601 5.329950e-05
 8     Belarus        year   0.003907557 0.0007587624  5.149908 1.284924e-05
 9     Belgium (Intercept)  -5.845534016 1.5153390521 -3.857575 5.216573e-04
10     Belgium        year   0.003203234 0.0007652852  4.185673 2.072981e-04
# ... with 389 more rows
```

Filter to get only `year` coefficients, as `(Intercept)` wont be used

```
> # Print the country_coefficients dataset
> country_coefficients
# A tibble: 399 x 6
       country        term      estimate    std.error statistic      p.value
         <chr>       <chr>         <dbl>        <dbl>     <dbl>        <dbl>
 1 Afghanistan (Intercept) -11.063084650 1.4705189228 -7.523252 1.444892e-08
 2 Afghanistan        year   0.006009299 0.0007426499  8.091698 3.064797e-09
 3   Argentina (Intercept)  -9.464512565 2.1008982371 -4.504984 8.322481e-05
 4   Argentina        year   0.005148829 0.0010610076  4.852773 3.047078e-05
 5   Australia (Intercept)  -4.545492536 2.1479916283 -2.116159 4.220387e-02
 6   Australia        year   0.002567161 0.0010847910  2.366503 2.417617e-02
 7     Belarus (Intercept)  -7.000692717 1.5024232546 -4.659601 5.329950e-05
 8     Belarus        year   0.003907557 0.0007587624  5.149908 1.284924e-05
 9     Belgium (Intercept)  -5.845534016 1.5153390521 -3.857575 5.216573e-04
10     Belgium        year   0.003203234 0.0007652852  4.185673 2.072981e-04
# ... with 389 more rows
>
> # Filter for only the slope terms
> filter(country_coefficients, term == 'year')
# A tibble: 199 x 6
                           country  term    estimate    std.error statistic
                             <chr> <chr>       <dbl>        <dbl>     <dbl>
 1                     Afghanistan  year 0.006009299 0.0007426499  8.091698
 2                       Argentina  year 0.005148829 0.0010610076  4.852773
 3                       Australia  year 0.002567161 0.0010847910  2.366503
 4                         Belarus  year 0.003907557 0.0007587624  5.149908
 5                         Belgium  year 0.003203234 0.0007652852  4.185673
 6 Bolivia, Plurinational State of  year 0.005802864 0.0009657515  6.008651
 7                          Brazil  year 0.006107151 0.0008167736  7.477164
 8                          Canada  year 0.001515867 0.0009552118  1.586943
 9                           Chile  year 0.006775560 0.0008220463  8.242310
10                        Colombia  year 0.006157755 0.0009645084  6.384346
# ... with 189 more rows, and 1 more variables: p.value <dbl>
```

Filter out significant countries with less than p value of 0.05

```
> ## Filter for only the slope terms
> slope_terms <- country_coefficients %>%
    filter(term == "year")
>
> # Add p.adjusted column, then filter
> slope_terms %>%
    mutate(p.adjusted = p.adjust(p.value)) %>%
    filter(p.adjusted < .05)
# A tibble: 61 x 7
                           country  term    estimate    std.error statistic
                             <chr> <chr>       <dbl>        <dbl>     <dbl>
 1                     Afghanistan  year 0.006009299 0.0007426499  8.091698
 2                       Argentina  year 0.005148829 0.0010610076  4.852773
 3                         Belarus  year 0.003907557 0.0007587624  5.149908
 4                         Belgium  year 0.003203234 0.0007652852  4.185673
 5 Bolivia, Plurinational State of  year 0.005802864 0.0009657515  6.008651
 6                          Brazil  year 0.006107151 0.0008167736  7.477164
 7                           Chile  year 0.006775560 0.0008220463  8.242310
 8                        Colombia  year 0.006157755 0.0009645084  6.384346
 9                      Costa Rica  year 0.006539273 0.0008119113  8.054171
10                            Cuba  year 0.004610867 0.0007205029  6.399512
# ... with 51 more rows, and 2 more variables: p.value <dbl>, p.adjusted <dbl>
…
arrange data asc y desc

```
> ## Filter by adjusted p-values
> filtered_countries <- country_coefficients %>%
    filter(term == "year") %>%
    mutate(p.adjusted = p.adjust(p.value)) %>%
    filter(p.adjusted < .05)
>
> # Sort for the countries increasing most quickly
> filtered_countries %>%
    arrange(desc(estimate))
# A tibble: 61 x 7
               country  term    estimate    std.error statistic      p.value
                 <chr> <chr>       <dbl>        <dbl>     <dbl>        <dbl>
 1        South Africa  year 0.011858333 0.0014003768  8.467959 1.595372e-08
 2          Kazakhstan  year 0.010955741 0.0019482401  5.623404 3.244186e-04
 3 Yemen Arab Republic  year 0.010854882 0.0015869058  6.840281 1.197855e-06
 4          Kyrgyzstan  year 0.009725462 0.0009884060  9.839541 2.379933e-05
 5              Malawi  year 0.009084873 0.0018111087  5.016194 4.480823e-05
 6  Dominican Republic  year 0.008055482 0.0009138578  8.814809 5.957258e-10
 7            Portugal  year 0.008020046 0.0017124482  4.683380 7.132640e-05
 8            Honduras  year 0.007717977 0.0009214260  8.376123 1.431724e-09
 9                Peru  year 0.007299813 0.0009764019  7.476238 1.645381e-08
10           Nicaragua  year 0.007075848 0.0010716402  6.602820 1.918043e-07
# ... with 51 more rows, and 1 more variables: p.adjusted <dbl>
>
> # Sort for the countries decreasing most quickly
> filtered_countries %>%
    arrange(estimate)
# A tibble: 61 x 7
                     country  term     estimate    std.error statistic
                       <chr> <chr>        <dbl>        <dbl>     <dbl>
 1        Korea, Republic of  year -0.009209912 0.0015453128 -5.959901
 2                    Israel  year -0.006852921 0.0011718657 -5.847873
 3             United States  year -0.006239305 0.0009282243 -6.721764
 4                   Belgium  year  0.003203234 0.0007652852  4.185673
 5                    Guinea  year  0.003621508 0.0008326598  4.349325
 6                   Morocco  year  0.003798641 0.0008603064  4.415451
 7                   Belarus  year  0.003907557 0.0007587624  5.149908
 8 Iran, Islamic Republic of  year  0.003911100 0.0008558952  4.569602
 9                     Congo  year  0.003967778 0.0009220262  4.303324
10                     Sudan  year  0.003989394 0.0009613894  4.149613
# ... with 51 more rows, and 2 more variables: p.value <dbl>, p.adjusted <dbl>
>
```

### Joining datasets

Join two datasets with description, so all

```{r}
> # Print the votes_processed dataset
> votes_processed
# A tibble: 353,547 x 6
    rcid session  vote ccode  year            country
   <dbl>   <dbl> <dbl> <int> <dbl>              <chr>
 1    46       2     1     2  1947      United States
 2    46       2     1    20  1947             Canada
 3    46       2     1    40  1947               Cuba
 4    46       2     1    41  1947              Haiti
 5    46       2     1    42  1947 Dominican Republic
 6    46       2     1    70  1947             Mexico
 7    46       2     1    90  1947          Guatemala
 8    46       2     1    91  1947           Honduras
 9    46       2     1    92  1947        El Salvador
10    46       2     1    93  1947          Nicaragua
# ... with 353,537 more rows
>
> # Print the descriptions dataset
> descriptions
# A tibble: 2,589 x 10
    rcid session       date   unres    me    nu    di    hr    co    ec
   <dbl>   <dbl>     <dttm>   <chr> <dbl> <dbl> <dbl> <dbl> <dbl> <dbl>
 1    46       2 1947-09-04 R/2/299     0     0     0     0     0     0
 2    47       2 1947-10-05 R/2/355     0     0     0     1     0     0
 3    48       2 1947-10-06 R/2/461     0     0     0     0     0     0
 4    49       2 1947-10-06 R/2/463     0     0     0     0     0     0
 5    50       2 1947-10-06 R/2/465     0     0     0     0     0     0
 6    51       2 1947-10-02 R/2/561     0     0     0     0     1     0
 7    52       2 1947-11-06 R/2/650     0     0     0     0     1     0
 8    53       2 1947-11-06 R/2/651     0     0     0     0     1     0
 9    54       2 1947-11-06 R/2/651     0     0     0     0     1     0
10    55       2 1947-11-06 R/2/667     0     0     0     0     1     0
# ... with 2,579 more rows
>
> # Join them together based on the "rcid" and "session" columns
> votes_joined <-votes_processed %>%
   inner_join(descriptions, by = c("rcid", "session"))
> votes_joined
# A tibble: 353,547 x 14
    rcid session  vote ccode  year            country       date   unres    me
   <dbl>   <dbl> <dbl> <int> <dbl>              <chr>     <dttm>   <chr> <dbl>
 1    46       2     1     2  1947      United States 1947-09-04 R/2/299     0
 2    46       2     1    20  1947             Canada 1947-09-04 R/2/299     0
 3    46       2     1    40  1947               Cuba 1947-09-04 R/2/299     0
 4    46       2     1    41  1947              Haiti 1947-09-04 R/2/299     0
 5    46       2     1    42  1947 Dominican Republic 1947-09-04 R/2/299     0
 6    46       2     1    70  1947             Mexico 1947-09-04 R/2/299     0
 7    46       2     1    90  1947          Guatemala 1947-09-04 R/2/299     0
 8    46       2     1    91  1947           Honduras 1947-09-04 R/2/299     0
 9    46       2     1    92  1947        El Salvador 1947-09-04 R/2/299     0
10    46       2     1    93  1947          Nicaragua 1947-09-04 R/2/299     0
# ... with 353,537 more rows, and 5 more variables: nu <dbl>, di <dbl>,
#   hr <dbl>, co <dbl>, ec <dbl>
```
…
# A tibble: 6 x 14
   rcid session  vote ccode  year            country       date   unres    me
  <dbl>   <dbl> <dbl> <int> <dbl>              <chr>     <dttm>   <chr> <dbl>
1    46       2     1     2  1947      United States 1947-09-04 R/2/299     0
2    46       2     1    20  1947             Canada 1947-09-04 R/2/299     0
3    46       2     1    40  1947               Cuba 1947-09-04 R/2/299     0
4    46       2     1    41  1947              Haiti 1947-09-04 R/2/299     0
5    46       2     1    42  1947 Dominican Republic 1947-09-04 R/2/299     0
6    46       2     1    70  1947             Mexico 1947-09-04 R/2/299     0
# ... with 5 more variables: nu <dbl>, di <dbl>, hr <dbl>, co <dbl>, ec <dbl>
>
> # Gather the six me/nu/di/hr/co/ec columns
> votes_joined %>%
  gather(topic, has_topic, me:ec)
# A tibble: 2,121,282 x 10
    rcid session  vote ccode  year            country       date   unres topic
   <dbl>   <dbl> <dbl> <int> <dbl>              <chr>     <dttm>   <chr> <chr>
 1    46       2     1     2  1947      United States 1947-09-04 R/2/299    me
 2    46       2     1    20  1947             Canada 1947-09-04 R/2/299    me
 3    46       2     1    40  1947               Cuba 1947-09-04 R/2/299    me
 4    46       2     1    41  1947              Haiti 1947-09-04 R/2/299    me
 5    46       2     1    42  1947 Dominican Republic 1947-09-04 R/2/299    me
 6    46       2     1    70  1947             Mexico 1947-09-04 R/2/299    me
 7    46       2     1    90  1947          Guatemala 1947-09-04 R/2/299    me
 8    46       2     1    91  1947           Honduras 1947-09-04 R/2/299    me
 9    46       2     1    92  1947        El Salvador 1947-09-04 R/2/299    me
10    46       2     1    93  1947          Nicaragua 1947-09-04 R/2/299    me
# ... with 2,121,272 more rows, and 1 more variables: has_topic <dbl>
…
Summarize by country, year and topic

```
> # Print votes_tidied
> votes_tidied
# A tibble: 350,032 x 10
    rcid session  vote ccode  year            country       date    unres
   <dbl>   <dbl> <dbl> <int> <dbl>              <chr>     <dttm>    <chr>
 1    77       2     1     2  1947      United States 1947-11-06 R/2/1424
 2    77       2     1    20  1947             Canada 1947-11-06 R/2/1424
 3    77       2     3    40  1947               Cuba 1947-11-06 R/2/1424
 4    77       2     1    41  1947              Haiti 1947-11-06 R/2/1424
 5    77       2     1    42  1947 Dominican Republic 1947-11-06 R/2/1424
 6    77       2     2    70  1947             Mexico 1947-11-06 R/2/1424
 7    77       2     1    90  1947          Guatemala 1947-11-06 R/2/1424
 8    77       2     2    91  1947           Honduras 1947-11-06 R/2/1424
 9    77       2     2    92  1947        El Salvador 1947-11-06 R/2/1424
10    77       2     1    93  1947          Nicaragua 1947-11-06 R/2/1424
# ... with 350,022 more rows, and 2 more variables: topic <chr>,
#   has_topic <dbl>
>
> # Summarize the percentage "yes" per country-year-topic
> by_country_year_topic <- votes_tidied %>%
    group_by(country, year, topic) %>%
    summarize(total = n(), percent_yes = mean(vote == 1)) %>%
    ungroup()
>
> # Print by_country_year_topic
> by_country_year_topic
# A tibble: 26,968 x 5
       country  year                                topic total percent_yes
         <chr> <dbl>                                <chr> <int>       <dbl>
 1 Afghanistan  1947                          Colonialism     8   0.5000000
 2 Afghanistan  1947                 Economic development     1   0.0000000
 3 Afghanistan  1947                         Human rights     1   0.0000000
 4 Afghanistan  1947                 Palestinian conflict     6   0.0000000
 5 Afghanistan  1949         Arms control and disarmament     3   0.0000000
 6 Afghanistan  1949                          Colonialism    22   0.8636364
 7 Afghanistan  1949                 Economic development     1   1.0000000
 8 Afghanistan  1949                         Human rights     3   0.0000000
 9 Afghanistan  1949 Nuclear weapons and nuclear material     3   0.0000000
10 Afghanistan  1949                 Palestinian conflict    11   0.8181818
# ... with 26,958 more rows
```
…
